%YAML 1.1
%TAG !u! tag:unity3d.com,2011:
--- !u!114 &11400000
MonoBehaviour:
  m_ObjectHideFlags: 0
  m_CorrespondingSourceObject: {fileID: 0}
  m_PrefabInstance: {fileID: 0}
  m_PrefabAsset: {fileID: 0}
  m_GameObject: {fileID: 0}
  m_Enabled: 1
  m_EditorHideFlags: 0
  m_Script: {fileID: 11500000, guid: d2a1e0ea50ab4b7cabb1686b3b129f7f, type: 3}
  m_Name: EnemyCharacter
  m_EditorClassIdentifier: 
  animator: {fileID: 4536850281273507646, guid: ff7e8290758f140d19a48c22d5b7ba61,
    type: 3}
  movementSpeed: 0.83
  attackCooldown: 2
